Expands integration matrix with the cumulative IS union over time. — cumulative_is • ISAnalytics
…
    Examples

data("integration_matrices", package = "ISAnalytics")
data("association_file", package = "ISAnalytics")
aggreg <- aggregate_values_by_key(
    x = integration_matrices,
    association_file = association_file,
    value_cols = c("seqCount", "fragmentEstimate")
)
cumulated_is <- cumulative_is(aggreg)
cumulated_is
#> $coordinates
#> # A tibble: 2,375 × 9
#>    SubjectID CellMarker Tissue TimePoint chr   integration_locus strand GeneName
#>    <chr>     <chr>      <chr>      <dbl> <chr>             <dbl> <chr>  <chr>   
#>  1 PT001     MNC        BM            30 1               8464757 -      RERE    
#>  2 PT001     MNC        BM            30 1              16186297 -      SPEN    
#>  3 PT001     MNC        BM            30 1              40689188 +      RLF     
#>  4 PT001     MNC        BM            30 1             157759338 -      FCRL1   
#>  5 PT001     MNC        BM            30 1             234596545 -      TARBP1  
#>  6 PT001     MNC        BM            30 10            122533902 -      WDR11-A…
#>  7 PT001     MNC        BM            30 11              5306480 +      HBE1    
#>  8 PT001     MNC        BM            30 11             64633964 +      EHD1    
#>  9 PT001     MNC        BM            30 11             65949729 -      PACS1   
#> 10 PT001     MNC        BM            30 11             72097513 +      CLPB    
#> # ℹ 2,365 more rows
#> # ℹ 1 more variable: GeneStrand <chr>
…
