Find the source of IS by evaluating sharing. — iss_source • ISAnalytics
…
data("integration_matrices", package = "ISAnalytics")
data("association_file", package = "ISAnalytics")
aggreg <- aggregate_values_by_key(
    x = integration_matrices,
    association_file = association_file,
    value_cols = c("seqCount", "fragmentEstimate")
)
df1 <- aggreg |>
    dplyr::filter(.data$Tissue == "BM")
df2 <- aggreg |>
    dplyr::filter(.data$Tissue == "PB")
source <- iss_source(df1, df2)
source
#> $PT001
#> # A tibble: 161 × 14
#>    g1       g1_SubjectID g1_CellMarker g1_Tissue g1_TimePoint g2    g2_SubjectID
#>    <chr>    <chr>        <chr>         <chr>            <int> <chr> <chr>       
#>  1 PT001_M… PT001        MNC           BM                 180 PT00… PT001       
#>  2 PT001_M… PT001        MNC           BM                 180 PT00… PT001       
#>  3 PT001_M… PT001        MNC           BM                 180 PT00… PT001       
#>  4 PT001_M… PT001        MNC           BM                 180 PT00… PT001       
#>  5 PT001_M… PT001        MNC           BM                 180 PT00… PT001       
#>  6 PT001_M… PT001        MNC           BM                 180 PT00… PT001       
#>  7 PT001_M… PT001        MNC           BM                 180 PT00… PT001       
#>  8 PT001_M… PT001        MNC           BM                 180 PT00… PT001       
#>  9 PT001_M… PT001        MNC           BM                 180 PT00… PT001       
#> 10 PT001_M… PT001        MNC           BM                 180 PT00… PT001       
#> # ℹ 151 more rows
#> # ℹ 7 more variables: g2_CellMarker <chr>, g2_Tissue <chr>, g2_TimePoint <int>,
#> #   chr <chr>, integration_locus <dbl>, strand <chr>, sharing_perc <dbl>
#> 
#> $PT002
#> # A tibble: 77 × 14
#>    g1       g1_SubjectID g1_CellMarker g1_Tissue g1_TimePoint g2    g2_SubjectID
#>    <chr>    <chr>        <chr>         <chr>            <int> <chr> <chr>       
#>  1 PT002_M… PT002        MNC           BM                 180 PT00… PT002       
#>  2 PT002_M… PT002        MNC           BM                 180 PT00… PT002       
#>  3 PT002_M… PT002        MNC           BM                 180 PT00… PT002       
#>  4 PT002_M… PT002        MNC           BM                 180 PT00… PT002       
#>  5 PT002_M… PT002        MNC           BM                 180 PT00… PT002       
#>  6 PT002_M… PT002        MNC           BM                 180 PT00… PT002       
#>  7 PT002_M… PT002        MNC           BM                 180 PT00… PT002       
#>  8 PT002_M… PT002        MNC           BM                 180 PT00… PT002       
#>  9 PT002_M… PT002        MNC           BM                 180 PT00… PT002       
#> 10 PT002_M… PT002        MNC           BM                 180 PT00… PT002       
#> # ℹ 67 more rows
#> # ℹ 7 more variables: g2_CellMarker <chr>, g2_Tissue <chr>, g2_TimePoint <int>,
#> #   chr <chr>, integration_locus <dbl>, strand <chr>, sharing_perc <dbl>
…
